SEQID	Method_GeneRegion	QIIME_16s	SampleID	BarcodeSequence	LinkerPrimerSequence	Project	Treatment	Substrate	Target	Description
Sample1_Seq1	NA	Unassignable	Sample1	ACGAGTGCGT	NA	Uni1	Composted	Soil	Fungi	NA
Sample1_Seq2	NA	Unassignable	Sample1	ACGAGTGCGT	NA	Uni1	Composted	Soil	Fungi	NA
Sample1_Seq3	NA	K_Bacteria;	Sample1	ACGAGTGCGT	NA	Uni1	Composted	Soil	Fungi	NA
Sample1_Seq4	sk__Eukaryota; k__Fungi; p__Ascomycota; c__Dothideomycetes; o__; f__; g__; s__	sk__Eukaryota; k__Fungi; p__Ascomycota; c__Dothideomycetes; o__; f__; g__; s__	Sample1	ACGAGTGCGT	NA	Uni1	Composted	Soil	Fungi	NA
Sample1_Seq5	NA	Unassignable	Sample1	ACGAGTGCGT	NA	Uni1	Composted	Soil	Fungi	NA
Sample1_Seq6	NA	Unassignable	Sample1	ACGAGTGCGT	NA	Uni1	Composted	Soil	Fungi	NA
Sample1_Seq7	NA	Unassignable	Sample1	ACGAGTGCGT	NA	Uni1	Composted	Soil	Fungi	NA
Sample1_Seq8	NA	Unassignable	Sample1	ACGAGTGCGT	NA	Uni1	Composted	Soil	Fungi	NA
Sample1_Seq9	NA	Unassignable	Sample1	ACGAGTGCGT	NA	Uni1	Composted	Soil	Fungi	NA
Sample1_Seq10	Unassignable	NA	Sample1	ACGAGTGCGT	NA	Uni1	Composted	Soil	Fungi	NA
Sample3_Seq1	Unassignable	NA	Sample3	AGACGCACTC	NA	Uni1	Composted	Soil	Fungi	NA
Sample3_Seq2	Unassignable	NA	Sample3	AGACGCACTC	NA	Uni1	Composted	Soil	Fungi	NA
Sample3_Seq3	Unassignable	NA	Sample3	AGACGCACTC	NA	Uni1	Composted	Soil	Fungi	NA
Sample3_Seq4	sk__Eukaryota; k__Fungi; p__Ascomycota; c__Dothideomycetes; o__; f__; g__Epicoccum; s__	sk__Eukaryota; k__Fungi; p__Ascomycota; c__Dothideomycetes; o__; f__; g__Epicoccum; s__	Sample3	AGACGCACTC	NA	Uni1	Composted	Soil	Fungi	NA
Sample3_Seq5	Unassignable	NA	Sample3	AGACGCACTC	NA	Uni1	Composted	Soil	Fungi	NA
Sample3_Seq6	Unassignable	NA	Sample3	AGACGCACTC	NA	Uni1	Composted	Soil	Fungi	NA
Sample3_Seq7	Unassignable	NA	Sample3	AGACGCACTC	NA	Uni1	Composted	Soil	Fungi	NA
Sample3_Seq8	Unassignable	NA	Sample3	AGACGCACTC	NA	Uni1	Composted	Soil	Fungi	NA
Sample3_Seq9	sk__Eukaryota; k__Fungi; p__Ascomycota; c__Dothideomycetes; o__; f__; g__Epicoccum; s__	sk__Eukaryota; k__Fungi; p__Ascomycota; c__Dothideomycetes; o__; f__; g__Epicoccum; s__	Sample3	AGACGCACTC	NA	Uni1	Composted	Soil	Fungi	NA
Sample3_Seq10	Unassignable	NA	Sample3	AGACGCACTC	NA	Uni1	Composted	Soil	Fungi	NA
Sample6_Seq1	Unassignable	NA	Sample6	ATATCGCGAG	NA	Uni1	Composted	Soil	Bacteria	NA
Sample6_Seq2	Unassignable	NA	Sample6	ATATCGCGAG	NA	Uni1	Composted	Soil	Bacteria	NA
Sample6_Seq3	Unassignable	NA	Sample6	ATATCGCGAG	NA	Uni1	Composted	Soil	Bacteria	NA
Sample6_Seq4	sk__Eukaryota; k__Fungi; p__Ascomycota; c__Dothideomycetes; o__Pleosporales; f__Leptosphaeriaceae; g__Leptosphaeria; s__ 	sk__Eukaryota; k__Fungi; p__Ascomycota; c__Dothideomycetes; o__; f__; g__; s__	Sample6	ATATCGCGAG	NA	Uni1	Composted	Soil	Bacteria	NA
Sample6_Seq5	Unassignable	NA	Sample6	ATATCGCGAG	NA	Uni1	Composted	Soil	Bacteria	NA
Sample6_Seq6	Unassignable	NA	Sample6	ATATCGCGAG	NA	Uni1	Composted	Soil	Bacteria	NA
Sample6_Seq7	Unassignable	NA	Sample6	ATATCGCGAG	NA	Uni1	Composted	Soil	Bacteria	NA
Sample6_Seq8	sk__Eukaryota; k__Fungi; p__Ascomycota; c__Dothideomycetes; o__; f__; g__Epicoccum; s__	NA	Sample6	ATATCGCGAG	NA	Uni1	Composted	Soil	Bacteria	NA
Sample6_Seq9	Unassignable	NA	Sample6	ATATCGCGAG	NA	Uni1	Composted	Soil	Bacteria	NA
Sample6_Seq10	Unassignable	NA	Sample6	ATATCGCGAG	NA	Uni1	Composted	Soil	Bacteria	NA
NewSample_Seq1	Unassignable	NA	NA	NA	NA	NA	NA	NA	NA	NA
NewSample_Seq2	Unassignable	NA	NA	NA	NA	NA	NA	NA	NA	NA
NewSample_Seq3	Unassignable	NA	NA	NA	NA	NA	NA	NA	NA	NA
NewSample_Seq4	sk__Eukaryota; k__Fungi; p__Ascomycota; c__Dothideomycetes; o__Pleosporales; f__Leptosphaeriaceae; g__Leptosphaeria; s__	sk__Eukaryota; k__Fungi; p__Ascomycota; c__Dothideomycetes; o__Pleosporales; f__Leptosphaeriaceae; g__Leptosphaeria; s__	NA	NA	NA	NA	NA	NA	NA	NA
NewSample_Seq5	Unassignable	NA	NA	NA	NA	NA	NA	NA	NA	NA
NewSample_Seq6	Unassignable	NA	NA	NA	NA	NA	NA	NA	NA	NA
NewSample_Seq7	Unassignable	NA	NA	NA	NA	NA	NA	NA	NA	NA
NewSample_Seq8	Unassignable	NA	NA	NA	NA	NA	NA	NA	NA	NA
NewSample_Seq9	Unassignable	NA	NA	NA	NA	NA	NA	NA	NA	NA
NewSample_Seq10	Unassignable	NA	NA	NA	NA	NA	NA	NA	NA	NA
